C:\Users\ej825e\git\SpringBootJwtAuthentication\src\main\java\com\grokonez\jwtauthentication\controller\TestRestAPIs.java
C:\Users\ej825e\git\SpringBootJwtAuthentication\src\main\java\com\grokonez\jwtauthentication\security\WebSecurityConfig.java
C:\Users\ej825e\git\SpringBootJwtAuthentication\src\main\java\com\grokonez\jwtauthentication\message\request\SignUpForm.java
C:\Users\ej825e\git\SpringBootJwtAuthentication\src\main\java\com\grokonez\jwtauthentication\SpringBootJwtAuthenticationApplication.java
C:\Users\ej825e\git\SpringBootJwtAuthentication\src\main\java\com\grokonez\jwtauthentication\security\services\UserPrinciple.java
C:\Users\ej825e\git\SpringBootJwtAuthentication\src\main\java\com\grokonez\jwtauthentication\security\jwt\JwtProvider.java
C:\Users\ej825e\git\SpringBootJwtAuthentication\src\main\java\com\grokonez\jwtauthentication\model\User.java
C:\Users\ej825e\git\SpringBootJwtAuthentication\src\main\java\com\grokonez\jwtauthentication\repository\UserRepository.java
C:\Users\ej825e\git\SpringBootJwtAuthentication\src\main\java\com\grokonez\jwtauthentication\SecurityWebApplicationInitializer.java
C:\Users\ej825e\git\SpringBootJwtAuthentication\src\main\java\com\grokonez\jwtauthentication\security\jwt\JwtAuthEntryPoint.java
C:\Users\ej825e\git\SpringBootJwtAuthentication\src\main\java\com\grokonez\jwtauthentication\security\services\UserDetailsServiceImpl.java
C:\Users\ej825e\git\SpringBootJwtAuthentication\src\main\java\com\grokonez\jwtauthentication\model\Role.java
C:\Users\ej825e\git\SpringBootJwtAuthentication\src\main\java\com\grokonez\jwtauthentication\security\jwt\JwtAuthTokenFilter.java
C:\Users\ej825e\git\SpringBootJwtAuthentication\src\main\java\com\grokonez\jwtauthentication\message\request\LoginForm.java
C:\Users\ej825e\git\SpringBootJwtAuthentication\src\main\java\com\grokonez\jwtauthentication\model\RoleName.java
C:\Users\ej825e\git\SpringBootJwtAuthentication\src\main\java\com\grokonez\jwtauthentication\controller\AuthRestAPIs.java
C:\Users\ej825e\git\SpringBootJwtAuthentication\src\main\java\com\grokonez\jwtauthentication\repository\RoleRepository.java
C:\Users\ej825e\git\SpringBootJwtAuthentication\src\main\java\com\grokonez\jwtauthentication\message\response\JwtResponse.java
C:\Users\ej825e\git\SpringBootJwtAuthentication\src\main\java\com\grokonez\jwtauthentication\message\response\ResponseMessage.java
